GAMS Rev 236  WEX-WEI 23.6.2 x86_64/MS Windows                                                     10/21/11 23:52:22 Page 1
Kappa Manufacturing Company
C o m p i l a t i o n


   2   
   3  set     j       Products /A*C/,
   4          s       Shifts /day, night/,
   5          i       Operations /
   6                  stamp   Stamping and welding,
   7                  sub     Subassembly,
   8                  final   Final assembly and packing/;
   9   
  10  table   time(i,s)  Available time (hours)
  11   
  12                          day     night
  13          stamp           30      35
  14          sub             25      30
  15          final           40      35;
  16   
  17  table   a(i,j,s)        Productivity (units per hour)
  18   
  19          A.day   B.day   C.day   A.night B.night C.night
  20  stamp   5       3       5       3       2       3
  21  sub     6       4       4       5       2       2
  22  final   4       3       2       4       3       2;
  23   
  24  parameter       p(j)    Selling prices /A 25, B 15, C 20/;
  25   
  26  table   c(j,s)  Costs per unit by product and shift
  27   
  28                  day     night
  29          A       11      16
  30          B       10      14
  31          C       12      18;
  32   
  33  variables       PI      Profit,
  34                  Y(j)    Aggregate production by product,
  35                  X(j,s)  Production by product and shift;
  36   
  37  nonnegative variables X, Y;
  38   
  39  equations       profitdef, output, capacity;
  40   
  41  profitdef..  PI =E= sum(j, P(j)*Y(j) - sum(s, c(j,s)*X(j,s)));
  42   
  43  output(j)..      Y(j) =E= sum(s, X(j,s));
  44   
  45  capacity(i,s)..  sum(j, X(j,s)/a(i,j,s)) =L= time(i,s);
  46   
  47  Y.FX("A") = 60;
  48  Y.LO("B") = 60;
  49  Y.FX("C") = 40;
  50   
  51  model kappa /all/;
  52  solve kappa using LP maximizing PI;


COMPILATION TIME     =        0.000 SECONDS      3 Mb  WEX236-236 Dec  8, 2010
GAMS Rev 236  WEX-WEI 23.6.2 x86_64/MS Windows                                                     10/21/11 23:52:22 Page 2
Kappa Manufacturing Company
Equation Listing    SOLVE kappa Using LP From line 52


---- profitdef  =E=  

profitdef..  PI - 25*Y(A) - 15*Y(B) - 20*Y(C) + 11*X(A,day) + 16*X(A,night) + 10*X(B,day) + 14*X(B,night) + 12*X(C,day)
     
      + 18*X(C,night) =E= 0 ; (LHS = -3200, INFES = 3200 ****)
     

---- output  =E=  

output(A)..  Y(A) - X(A,day) - X(A,night) =E= 0 ; (LHS = 60, INFES = 60 ****)
     
output(B)..  Y(B) - X(B,day) - X(B,night) =E= 0 ; (LHS = 60, INFES = 60 ****)
     
output(C)..  Y(C) - X(C,day) - X(C,night) =E= 0 ; (LHS = 40, INFES = 40 ****)
     

---- capacity  =L=  

capacity(stamp,day)..  0.2*X(A,day) + 0.333333333333333*X(B,day) + 0.2*X(C,day) =L= 30 ; (LHS = 0)
     
capacity(stamp,night)..  0.333333333333333*X(A,night) + 0.5*X(B,night) + 0.333333333333333*X(C,night) =L= 35 ; (LHS = 0)
     
capacity(sub,day)..  0.166666666666667*X(A,day) + 0.25*X(B,day) + 0.25*X(C,day) =L= 25 ; (LHS = 0)
     
REMAINING 3 ENTRIES SKIPPED

GAMS Rev 236  WEX-WEI 23.6.2 x86_64/MS Windows                                                     10/21/11 23:52:22 Page 3
Kappa Manufacturing Company
Column Listing      SOLVE kappa Using LP From line 52


---- PI  Profit

PI
                (.LO, .L, .UP, .M = -INF, 0, +INF, 0)
        1       profitdef


---- Y  Aggregate production by product

Y(A)
                (.LO, .L, .UP, .M = 60, 60, 60, 0)
      -25       profitdef
        1       output(A)

Y(B)
                (.LO, .L, .UP, .M = 60, 60, +INF, 0)
      -15       profitdef
        1       output(B)
        0       (OLD LEVEL ****)

Y(C)
                (.LO, .L, .UP, .M = 40, 40, 40, 0)
      -20       profitdef
        1       output(C)


---- X  Production by product and shift

X(A,day)
                (.LO, .L, .UP, .M = 0, 0, +INF, 0)
       11       profitdef
       -1       output(A)
        0.2     capacity(stamp,day)
        0.1667  capacity(sub,day)
        0.25    capacity(final,day)

X(A,night)
                (.LO, .L, .UP, .M = 0, 0, +INF, 0)
       16       profitdef
       -1       output(A)
        0.3333  capacity(stamp,night)
        0.2     capacity(sub,night)
        0.25    capacity(final,night)

X(B,day)
                (.LO, .L, .UP, .M = 0, 0, +INF, 0)
       10       profitdef
       -1       output(B)
        0.3333  capacity(stamp,day)
        0.25    capacity(sub,day)
        0.3333  capacity(final,day)

REMAINING 3 ENTRIES SKIPPED
GAMS Rev 236  WEX-WEI 23.6.2 x86_64/MS Windows                                                     10/21/11 23:52:22 Page 4
Kappa Manufacturing Company
Model Statistics    SOLVE kappa Using LP From line 52


MODEL STATISTICS

BLOCKS OF EQUATIONS           3     SINGLE EQUATIONS           10
BLOCKS OF VARIABLES           3     SINGLE VARIABLES           10  1 projected
NON ZERO ELEMENTS            37


GENERATION TIME      =        0.047 SECONDS      4 Mb  WEX236-236 Dec  8, 2010


EXECUTION TIME       =        0.047 SECONDS      4 Mb  WEX236-236 Dec  8, 2010
GAMS Rev 236  WEX-WEI 23.6.2 x86_64/MS Windows                                                     10/21/11 23:52:22 Page 5
Kappa Manufacturing Company
Solution Report     SOLVE kappa Using LP From line 52


               S O L V E      S U M M A R Y

     MODEL   kappa               OBJECTIVE  PI
     TYPE    LP                  DIRECTION  MAXIMIZE
     SOLVER  CPLEX               FROM LINE  52

**** SOLVER STATUS     1 Normal Completion         
**** MODEL STATUS      1 Optimal                   
**** OBJECTIVE VALUE             1300.0000

 RESOURCE USAGE, LIMIT          0.040      1000.000
 ITERATION COUNT, LIMIT         6    2000000000

IBM ILOG CPLEX   Dec 13, 2010 23.6.2 WEX 21703.21775 WEI x86_64/MS Windows
Cplex 12.2.0.1, GAMS Link 34 

LP status(1): optimal
Optimal solution found.
Objective :        1300.000000


                           LOWER          LEVEL          UPPER         MARGINAL

---- EQU profitdef           .              .              .             1.0000      

---- EQU output  

         LOWER          LEVEL          UPPER         MARGINAL

A          .              .              .            14.6667      
B          .              .              .            15.0000      
C          .              .              .            19.0000      

---- EQU capacity  

                   LOWER          LEVEL          UPPER         MARGINAL

stamp.day          -INF           28.0000        30.0000          .          
stamp.night        -INF           28.3333        35.0000          .          
sub  .day          -INF           25.0000        25.0000         4.0000      
sub  .night        -INF           30.0000        30.0000         2.0000      
final.day          -INF           40.0000        40.0000        12.0000      
final.night        -INF           21.6667        35.0000          .          

                           LOWER          LEVEL          UPPER         MARGINAL

---- VAR PI                -INF         1300.0000        +INF             .          

  PI  Profit

---- VAR Y  Aggregate production by product

         LOWER          LEVEL          UPPER         MARGINAL

A        60.0000        60.0000        60.0000        10.3333      
B        60.0000        80.0000        +INF             .          
C        40.0000        40.0000        40.0000         1.0000      

---- VAR X  Production by product and shift

               LOWER          LEVEL          UPPER         MARGINAL

A.day            .            60.0000        +INF             .          
A.night          .              .            +INF           -1.7333      
B.day            .            30.0000        +INF             .          
B.night          .            50.0000        +INF             .          
C.day            .            30.0000        +INF             .          
C.night          .            10.0000        +INF             .          


**** REPORT SUMMARY :        0     NONOPT
                             0 INFEASIBLE
                             0  UNBOUNDED
GAMS Rev 236  WEX-WEI 23.6.2 x86_64/MS Windows                                                     10/21/11 23:52:22 Page 6
Kappa Manufacturing Company
Solution Report     SOLVE kappa Using LP From line 52


EXECUTION TIME       =        0.016 SECONDS      2 Mb  WEX236-236 Dec  8, 2010


USER: Thomas Rutherford - Personal Copy              G990406:1440AA-WIN
      University of Colorado-Boulder, Dept of Economics          DC1282
      License for teaching and research at degree granting institutions


**** FILE SUMMARY

Input      h:\Classes\OperationsResearch\homework\hw1\kappa.gms
Output     h:\Classes\OperationsResearch\homework\hw1\kappa.lst
